[gd_scene load_steps=6 format=3 uid="uid://bakyov8ddele6"]

[ext_resource type="Texture2D" uid="uid://ch12wdfynfbis" path="res://assets/grassShadow.png" id="1_b7fd7"]
[ext_resource type="Shader" path="res://shaders/shakeGrass.gdshader" id="1_sxqgj"]
[ext_resource type="Script" path="res://environment/grass.gd" id="3_eao2e"]

[sub_resource type="ShaderMaterial" id="ShaderMaterial_w7wi4"]
resource_local_to_scene = true
shader = ExtResource("1_sxqgj")
shader_parameter/shake_intensity = 0.0
shader_parameter/shake_speed = 20.0

[sub_resource type="RectangleShape2D" id="RectangleShape2D_wqyiv"]
size = Vector2(16, 6)

[node name="grassShadow" type="Sprite2D"]
z_index = 1
material = SubResource("ShaderMaterial_w7wi4")
texture = ExtResource("1_b7fd7")
offset = Vector2(0, -5)
script = ExtResource("3_eao2e")

[node name="shakeArea" type="Area2D" parent="."]
collision_layer = 0
collision_mask = 16

[node name="CollisionShape2D" type="CollisionShape2D" parent="shakeArea"]
position = Vector2(0, -3)
shape = SubResource("RectangleShape2D_wqyiv")

[connection signal="area_entered" from="shakeArea" to="." method="_on_shake_area_area_entered"]
