[gd_resource type="Resource" script_class="GameStats" load_steps=2 format=3 uid="uid://xbqxyypqkny"]

[ext_resource type="Script" path="res://core/global/game_stats.gd" id="1_sr4mg"]

[resource]
script = ExtResource("1_sr4mg")
kills = 0
score = 0
highscore = 0
maxKills = 0
